{
  "dim_thetas": 8,
  "dim_channels": 1,
  "opt": {
    "config_filepath": null,
    "experiment_name": "arch/pressure_long",
    "dataset_path": "./data/code_8_2013_smooth_pressure_sdf_v.npz",
    "resume": true,
    "y": false,
    "no_shuffle_batches": false,
    "shuffle_samples": true,
    "seed": 6582336,
    "lambda_loss": 1e-05,
    "weight_init": "kaiming",
    "layer_type": "lip",
    "learning_channel": "pressure",
    "frequencies": 3,
    "num_layers": 4,
    "layer_size": 256,
    "skip_connection": -1,
    "dropout_probability": 0,
    "use_silu": false,
    "exclude_negative_sdf": false,
    "grad_loss_channel": "none",
    "grad_loss_weigth": 1,
    "batch_size": 0.1,
    "lr": 0.001,
    "num_epochs": 1000,
    "epochs_til_ckpt": 5,
    "steps_til_summary": 1,
    "steps_til_summary_from_batch_size": true
  }
}